{
  "schedules": [
    {
      "date": "2022-10-06",
      "sponsors": [
        {
          "sponsor": "Exabeam",
          "url": "https://www.exabeam.com/",
          "image": "exabeam.png"
        }
      ],
      "introtalks": [
        {
          "title": "SecDSM 101",
          "time": "6:30 PM",
          "description": "A brief introduction to the group along with any announcements and general communication."
        },
        {
          "title": "SecDSM News",
          "time": "6:35 PM",
          "description": "Quick Review of the Month's InfoSec news.",
          "speaker": {
            "name": "James Beal"
          }
        }
      ],
      "subgroups": [],
      "tooltalks": [],
      "features": [
        {
          "title": "General Audio/Video for your local CitySec meetup",
          "time": "6:35 PM",
          "description": "This presentation will cover design considerations, signal routing, operation, and of course security concerns with audio/video gear, with a focus on the needs of a local CitySec, such as SecDSM, but with a glimpse at security issues with A/V gear in general",
          "speaker": {
            "name": "Jared Brees",
            "bio": "Jared is just a geek..."
          }
        }
      ]
    },
    {
      "date": "2022-11-03",
      "sponsors": [
        {
          "sponsor": "Axonius",
          "url": "https://www.axonius.com/",
          "image": "axonius.png"
        }
      ],
      "introtalks": [
        {
          "title": "SecDSM 101",
          "time": "6:30 PM",
          "description": "A brief introduction to the group along with any announcements and general communication."
        },
        {
          "title": "SecDSM News",
          "time": "6:35 PM",
          "description": "Quick Review of the Month's InfoSec news.",
          "speaker": {
            "name": "James Beal"
          }
        }
      ],
      "subgroups": [],
      "tooltalks": [],
      "features": []
    },
    {
      "date": "2022-12-01",
      "sponsors": [
        {
          "sponsor": "Ahead",
          "url": "https://www.ahead.com/",
          "image": "ahead.png"
        }
      ],
      "introtalks": [
        {
          "title": "SecDSM 101",
          "time": "6:30 PM",
          "description": "A brief introduction to the group along with any announcements and general communication."
        },
        {
          "title": "SecDSM News",
          "time": "6:35 PM",
          "description": "Quick Review of the Month's InfoSec news.",
          "speaker": {
            "name": "James Beal"
          }
        }
      ],
      "subgroups": [],
      "tooltalks": [],
      "features": []
    },
    {
      "date": "2023-01-05",
      "sponsors": [],
      "introtalks": [
        {
          "title": "SecDSM 101",
          "time": "6:30 PM",
          "description": "A brief introduction to the group along with any announcements and general communication."
        },
        {
          "title": "SecDSM News",
          "time": "6:35 PM",
          "description": "Quick Review of the Month's InfoSec news.",
          "speaker": {
            "name": "James Beal"
          }
        }
      ],
      "subgroups": [],
      "tooltalks": [],
      "features": []
    }
  ],
  "cons": {
    "alert": {
      "message": "Events are changing more rapidly than we can keep up with and we don't want to spread misinformation. Until things calm down, Please check with the event directly.",
      "type": "danger"
    },
    "cons": []
  },
  "monthly": []
}
