{
  "name": "September",
  "abbreviation": "Sep",
  "talks": [
    {
      "presenter": {
        "name": "ProCircular"
      },
      "presentation": {
        "title": "CTF Event"
      }
    }
  ]
}