{
  "name": "May",
  "abbreviation": "May",
  "talks": [
    {
      "presenter": {
        "name": "Sherri Davidoff"
      },
      "presentation": {
        "title": "Do-It-Yourself Cellular IDS"
      }
    }
  ]
}