{
    "schedules": [
        {
            "date": "15 Mar 2018",
            "sponsors": [{
                "sponsor": "Symantec",
                "image": "symantec.png",
                "url": "https://symantec.com"
            }],
            "introtalks": [{
                    "title": "SecDSM 101",
                    "time": "6:00 PM",
                    "description": "A brief introduction to the group along with any announcements and general communication."
                },
                {
                    "title": "SecDSM News",
                    "time": "6:05 PM",
                    "description": "Quick Review of the Month's InfoSec news.",
                    "speaker": {
                        "name": "James Beal"
                    }
                }
            ],
            "subgroups": [{
                "title": "Des Moines Locksport",
                "description": "A side room will be dedicated to locksport."
                //          "speaker": {
                //            "name": "TOOOL",
                //            "bio": ""
                //          }
            }],
            "tooltalks": [],
            "features": [{
                "title": "Windows PKI",
                "time": "6:30 PM",
                "description": "Certificate Services: examining  common flaws and what we can do to make our CAs better",
                "speaker": {
                    "name": "Kris Mortensen",
                    "bio": "Kris Mortensen is a security professional at Kum & Go with experience in Microsoft systems engineering background and blue teaming."
                 }
            },
            {
                "title": "Investigating Insider Threats - past and present",
                "time": "7:10 PM",
                "description": "Analyzing and responding to insider threats typically requires the use of forensic techniques.  We will cover an older case, highlight the techniques/tools used (windows event logs, dd, tct, autopsy, foremost, imagemagick and a whole lotta perl) in the past and compare to similar techniques used in 2018.",
                "speaker": {
                    "name": "Ben Schmitt"
                 }
            }]
        },
        {
            "date": "19 Apr  2018",
            "sponsors": [{
                "sponsor": "Optiv",
                "url": "https://www.optiv.com/",
                "image": "optiv.png"
            }],
            "introtalks": [{
                    "title": "SecDSM 101",
                    "time": "6:00 PM",
                    "description": "A brief introduction to the group along with any announcements and general communication."
                },
                {
                    "title": "SecDSM News",
                    "time": "6:05 PM",
                    "description": "Quick Review of the Month's InfoSec news.",
                    "speaker": {
                        "name": "James Beal"
                    }
                }
            ],
            "subgroups": [{
                "title": "Des Moines Locksport",
                "description": "A side room will be dedicated to locksport."
                //          "speaker": {
                //            "name": "TOOOL",
                //            "bio": ""
                //          }
            }],
            "tooltalks": [],
            "features": []
        },
        {
            "date": "17 May  2018",
            "sponsors": [{
                "sponsor": "Recorded Future",
                "url": "https://www.recordedfuture.com/",
                "image": "recordedfuture.png"
            }],
            "introtalks": [{
                    "title": "SecDSM 101",
                    "time": "6:00 PM",
                    "description": "A brief introduction to the group along with any announcements and general communication."
                },
                {
                    "title": "SecDSM News",
                    "time": "6:05 PM",
                    "description": "Quick Review of the Month's InfoSec news.",
                    "speaker": {
                        "name": "James Beal"
                    }
                }
            ],
            "subgroups": [{
                "title": "Des Moines Locksport",
                "description": "A side room will be dedicated to locksport."
                //          "speaker": {
                //            "name": "TOOOL",
                //            "bio": ""
                //          }
            }],
            "tooltalks": [],
            "features": []
        },
        {
            "date": "21 Jun 2018",
            "sponsors": [{
                "sponsor": "Vectra AI",
                "url": "https://vectra.ai/"
            }],
            "introtalks": [{
                    "title": "SecDSM 101",
                    "time": "6:00 PM",
                    "description": "A brief introduction to the group along with any announcements and general communication."
                },
                {
                    "title": "SecDSM News",
                    "time": "6:05 PM",
                    "description": "Quick Review of the Month's InfoSec news.",
                    "speaker": {
                        "name": "James Beal"
                    }
                }
            ],
            "subgroups": [{
                "title": "Des Moines Locksport",
                "description": "A side room will be dedicated to locksport."
                //          "speaker": {
                //            "name": "TOOOL",
                //            "bio": ""
                //          }
            }],
            "tooltalks": [],
            "features": []
        }
    ],
    "cons": [
        {
            "name": "Cyphercon",
            "description": "Welcome to CypherCon 3.0. Wisconsin\'s Hacker Conference! Our conference provides hackers with an outlet to openly demonstrate and experience creativity and ingenuity through hands-on enlightening activities and thought provoking presentations and technical projects. Come listen to over a dozen security speakers, learn at our mind-blowing, but approachable villages (specializations), and relax with friends in a casual environment.",
            "link": "https://cyphercon.com/cyphercon-3-0/",
            "date": "April 12 - 13",
            "location": "Milwaukee, WI",
            "cost": "<p>$175 - Digital Badge</p><p>$125 - Analog Badge</p>",
            "details": { //optional
                //        "schedule": [ //optional
                //          {
                //            "day": "Friday",
                //            "date": "May 4th",
                //            "start_time": "??",
                //            "end_time": "??"
                //          },
                //          {
                //            "day": "Saturday",
                //            "date": "May 5th",
                //            "start_time": "??",
                //            "end_time": "??"
                //          }
                //        ],
                "travel": { //optional
                    "depart": {
                        "day": "Wed",
                        "date": "Apr 11",
                        "time": ""
                    },
                    "return": {
                        "day": "Saturday",
                        "date": "Apr 14",
                        "time": "???"
                    }
                }
            }
        },
        {
            "name": "BSidesIowa",
            "description": "",
            "link": "https://bsidesiowa.com",
            "date": "April 14th, 2018 ",
            "location": "Des Moines, IA",
            "cost": "??"
        },
        {
            "name": "BSidesKC",
            "description": "",
            "link": "https://bsideskc.org/",
            "date": "April 20 - 21",
            "location": "Kansas City, MO",
            "cost": ""
        },
        {
            "name": "THOTCON",
            "description": "THOTCON is a hacking conference based in Chicago IL, USA. This is a non-profit, non-commercial event looking to provide the best conference possible on a limited budget. ",
            "link": "https://thotcon.org/",
            "date": "May 4 - 5",
            "location": "Chicago, IL",
            "cost": "SOLD OUT",
            "details": { //optional
                "schedule": [ //optional
                    {
                        "day": "Friday",
                        "date": "May 4th",
                        "start_time": "??",
                        "end_time": "??"
                    },
                    {
                        "day": "Saturday",
                        "date": "May 5th",
                        "start_time": "??",
                        "end_time": "??"
                    }
                ],
                "travel": { //optional
                    "depart": {
                        "day": "Thurday",
                        "date": "May 3rd",
                        "time": ""
                    },
                    "return": {
                        "day": "Sunday",
                        "date": "May 5th",
                        "time": "???"
                    }
                }
            }
        },
        {
            "name": "CircleCityCon",
            "description": "Welcome agents to the 5th year of CircleCityCon. This time around our theme is centered around spycraft",
            "link": "https://circlecitycon.com/",
            "date": "Jun 1 - Jun 3",
            "location": "Indianapolis, IN",
            "cost": "$100",
            "details": { //optional
                "schedule": [ //optional
                    {
                        "day": "Friday",
                        "date": "June 1",
                        "start_time": "??",
                        "end_time": "??"
                    },
                    {
                        "day": "Saturday",
                        "date": "June 2",
                        "start_time": "??",
                        "end_time": "??"
                    },
                    {
                        "day": "Sunday",
                        "date": "June 3",
                        "start_time": "??",
                        "end_time": "??"
                    }
                ],
                "travel": { //optional
                    "depart": {
                        "day": "Thurday",
                        "date": "May 31",
                        "time": ""
                    },
                    "return": {
                        "day": "Sunday",
                        "date": "June 3",
                        "time": "???"
                    }
                }
            }
        },
        {
            "name": "ToorCamp",
            "description": "the five day, open air, tech camping event",
            "link": "https://toorcamp.toorcon.net/",
            "date": "Jun 20 - 24",
            "location": "San Juan Islands, WA",
            "cost": ""
        },
        {
            "name": "BSidesLV",
            "description": "",
            "link": "https://www.bsideslv.org/",
            "date": "Aug 7 - 8",
            "location": "Las Vegas, NV",
            "cost": ""
        },
        {
            "name": "DEF CON ",
            "description": "",
            "link": "https://www.defcon.org/",
            "date": "Aug 9 - 12",
            "location": "Las Vegas, NV",
            "cost": ""
        },
        {
            "name": "DerbyCon 8.0",
            "description": "",
            "link": "https://www.derbycon.com/",
            "date": "Oct 3 - 7",
            "location": "Louisville, KY",
            "cost": ""
        },
        {
            "name": "Wild West Hackin' Fest",
            "description": "",
            "link": "https://www.wildwesthackinfest.com/",
            "date": "Oct 25 - 26",
            "location": "Deadwood, South Dakota",
            "cost": "$250"
        }
    ],
    "monthly": [
        {
            "name": "Feburary",
            "events": [{
                    "url": "https://seckc.org/",
                    "name": "SecKC",
                    "time": "Feb 13",
                    "description": "",
                    "geolocation": ""
                },
                {
                    "url": "https://secmidwest.org/",
                    "name": "SecMidwest",
                    "time": "Feb 13",
                    "description": "SSL, 2-Factor Authentication, and More",
                    "geolocation": ""
                },
                {
                    "url": "https://secic.org",
                    "name": "SecIC",
                    "time": "Feb 20",
                    "description": "",
                    "geolocation": "https://www.google.com/maps/embed?pb=!1m18!1m12!1m3!1d2980.9465985949996!2d-91.53344804895069!3d41.65689578710499!2m3!1f0!2f0!3f0!3m2!1i1024!2i768!4f13.1!3m3!1m2!1s0x87e441ef5a2e433f%3A0x9f9d77f94f06db8a!2sIC+CoLab!5e0!3m2!1sen!2sus!4v1511995931168"
                },
                {
                    "url": "https://desmoines.issa.org/",
                    "name": "Des Moines ISSA",
                    "time": "Feb 26",
                    "description": "",
                    "geolocation": "https://www.google.com/maps/embed?pb=!1m18!1m12!1m3!1d2983.6841943109766!2d-93.78276538456765!3d41.597714279245494!2m3!1f0!2f0!3f0!3m2!1i1024!2i768!4f13.1!3m3!1m2!1s0x0%3A0xe2a3dd2055669cc6!2sFBL+Financial+Group+Inc!5e0!3m2!1sen!2sus!4v1511050024980"
                }
            ]
        },
        {
            "name": "March",
            "events": [{
                    "url": "https://seckc.org/",
                    "name": "SecKC",
                    "time": "Mar 13",
                    "description": "",
                    "geolocation": ""
                },
                {
                    "url": "https://secmidwest.org/",
                    "name": "SecMidwest",
                    "time": "Mar 13",
                    "description": "Social Engineering",
                    "geolocation": ""
                },
                {
                    "url": "https://secic.org",
                    "name": "SecIC",
                    "time": "Mar 20",
                    "description": "",
                    "geolocation": "https://www.google.com/maps/embed?pb=!1m18!1m12!1m3!1d2980.9465985949996!2d-91.53344804895069!3d41.65689578710499!2m3!1f0!2f0!3f0!3m2!1i1024!2i768!4f13.1!3m3!1m2!1s0x87e441ef5a2e433f%3A0x9f9d77f94f06db8a!2sIC+CoLab!5e0!3m2!1sen!2sus!4v1511995931168"
                },
                {
                    "url": "https://desmoines.issa.org/",
                    "name": "Des Moines ISSA",
                    "time": "Mar 26",
                    "description": "",
                    "geolocation": "https://www.google.com/maps/embed?pb=!1m18!1m12!1m3!1d2983.6841943109766!2d-93.78276538456765!3d41.597714279245494!2m3!1f0!2f0!3f0!3m2!1i1024!2i768!4f13.1!3m3!1m2!1s0x0%3A0xe2a3dd2055669cc6!2sFBL+Financial+Group+Inc!5e0!3m2!1sen!2sus!4v1511050024980"
                }
            ]
        },
        {
            "name": "April",
            "events": [{
                    "url": "https://secic.org",
                    "name": "SecIC",
                    "time": "Apr 17",
                    "description": "",
                    "geolocation": "https://www.google.com/maps/embed?pb=!1m18!1m12!1m3!1d2980.9465985949996!2d-91.53344804895069!3d41.65689578710499!2m3!1f0!2f0!3f0!3m2!1i1024!2i768!4f13.1!3m3!1m2!1s0x87e441ef5a2e433f%3A0x9f9d77f94f06db8a!2sIC+CoLab!5e0!3m2!1sen!2sus!4v1511995931168"
                }
            ]
        }
    ]
}
