{
  "name": "April",
  "abbreviation": "Apr",
  "talks": [
    {
      "presenter": {
        "name": "Stacy Monroe"
      },
      "presentation": {
        "title": "Principal CTF",
        "links": [
          {
            "url": "https://youtu.be/CrkSsvl3HRg",
            "type": "youtube"
          }
        ]
      }
    },
    {
      "presenter": {
        "name": "Current Cyber Threats"
      },
      "presentation": {
        "title": "Special Agent Jordan Loyd"
      }
    }
  ]
}